Rpopulartimes
…
write_csv(pop_times_df_pivot, 
          "./data/pop_times_pivot.csv",
          )

analysis

get top 3 times per place

pop_times_df %>%
  arrange(desc(popularity)) %>%
  group_by(location) %>%
  slice(1:3)

## # A tibble: 30 x 9
## # Groups:   location [10]
##    day_of_week  hour popularity   lon   lat time_spendt     current_pop location
##    <chr>       <int>      <int> <dbl> <dbl> <chr>                 <dbl> <chr>   
##  1 Dienstag       17        100  52.6  13.4 People typical~          46 Brenner~
##  2 Montag         17         98  52.6  13.4 People typical~          46 Brenner~
##  3 Montag         16         97  52.6  13.4 People typical~          46 Brenner~
##  4 Freitag        22        100  52.6  13.4 <NA>                     NA Diseo  
##  5 Freitag        21         89  52.6  13.4 <NA>                     NA Diseo  
##  6 Freitag        23         89  52.6  13.4 <NA>                     NA Diseo  
##  7 Donnerstag     18        100  52.6  13.4 People typical~          87 Kissing~
##  8 Donnerstag     19         96  52.6  13.4 People typical~          87 Kissing~
##  9 Dienstag       18         93  52.6  13.4 People typical~          87 Kissing~
## 10 Dienstag       15        100  52.6  13.4 People typical~          24 Neumann~
## # ... with 20 more rows, and 1 more variable: address <chr>
…
